
int task0(PT_OS_TCB_TypeDef* pt)
{
    static int a=0;
    { char PT_YIELD_FLAG = 1; switch((pt)->lc) { case 0:;
    while(1) {
        a=1;
        do { pt->delay = 100; do { (pt)->lc = 8; case 8:; if(!(pt->delay == 0)) { return 0; } } while(0); } while(0);
        a=0;
        do { pt->delay = 100; do { (pt)->lc = 10; case 10:; if(!(pt->delay == 0)) { return 0; } } while(0); } while(0);
    }
    }; PT_YIELD_FLAG = 0; (pt)->lc = 0;; return 2; };
}
